Analysing trials - Workshop part 2
…
dat3 <- hypertrophy %>%
  select(PARTICIPANT, GROUP, VL_T1, VL_T2, VL_T3) %>%
  filter(complete.cases(.)) %>%
  mutate(VL_T1 = VL_T1, 
         VL_T2 = VL_T2, 
         VL_T3 = VL_T3, 
         T2 = VL_T2 - VL_T1, 
         T3 = VL_T3 - VL_T1, 
         VL_T1 = VL_T1 - mean(VL_T1, na.rm = TRUE),
          GROUP = factor(GROUP, levels = c("MALTO", "WP", "GWP"))) %>%
  select(PARTICIPANT:VL_T1, T2, T3) %>%
  pivot_longer(names_to = "time", values_to = "change", cols = T2:T3) %>%
  print()

## # A tibble: 60 x 5
##    PARTICIPANT GROUP  VL_T1 time   change
##    <chr>       <fct>  <dbl> <chr>   <dbl>
##  1 MRV002      WP    -0.144 T2    -0.23  
##  2 MRV002      WP    -0.144 T3    -0.0300
##  3 MRV003      GWP    0.266 T2     0     
##  4 MRV003      GWP    0.266 T3     0.21  
##  5 MRV004      GWP   -0.444 T2    -0.21  
##  6 MRV004      GWP   -0.444 T3    -0.100 
##  7 MRV005      MALTO  0.706 T2    -0.25  
##  8 MRV005      MALTO  0.706 T3    -0.370 
##  9 MRV006      WP     0.376 T2    -0.25  
## 10 MRV006      WP     0.376 T3    -0.23  
## # ... with 50 more rows
…
time:GROUP
time:GROUP
0.4346350

An alternative model - the mixed effects model

dat4 <- hypertrophy %>%
  select(PARTICIPANT, GROUP, VL_T1, VL_T2, VL_T3) %>%

  pivot_longer(names_to = "time", values_to = "change", cols = VL_T1:VL_T3) %>%
  print()

## # A tibble: 93 x 4
##    PARTICIPANT GROUP time  change
##    <chr>       <chr> <chr>  <dbl>
##  1 MRV001      WP    VL_T1  NA   
##  2 MRV001      WP    VL_T2   2.99
##  3 MRV001      WP    VL_T3   3.45
##  4 MRV002      WP    VL_T1   2.93
##  5 MRV002      WP    VL_T2   2.7 
##  6 MRV002      WP    VL_T3   2.9 
##  7 MRV003      GWP   VL_T1   3.34
##  8 MRV003      GWP   VL_T2   3.34
##  9 MRV003      GWP   VL_T3   3.55
## 10 MRV004      GWP   VL_T1   2.63
## # ... with 83 more rows
…
